<?xml version="1.0" standalone="no"?>
<!DOCTYPE svg PUBLIC "-//W3C//DTD SVG 20010904//EN"
 "http://www.w3.org/TR/2001/REC-SVG-20010904/DTD/svg10.dtd">
<svg version="1.0" xmlns="http://www.w3.org/2000/svg"
 width="310.000000pt" height="310.000000pt" viewBox="0 0 310.000000 310.000000"
 preserveAspectRatio="xMidYMid meet">
<metadata>
Created by potrace 1.11, written by Peter Selinger 2001-2013
</metadata>
<g transform="translate(0.000000,310.000000) scale(0.100000,-0.100000)"
fill="#000000" stroke="none">
<path d="M986 2248 c-15 -40 -98 -324 -116 -393 -4 -16 -19 -70 -34 -120 -114
-388 -122 -427 -88 -440 9 -4 393 -8 852 -11 647 -2 841 -1 860 9 14 7 28 26
34 45 8 29 6 36 -15 56 -20 19 -531 341 -1296 814 -73 46 -142 82 -156 82 -21
0 -28 -8 -41 -42z m626 -440 c288 -177 553 -339 590 -361 37 -21 71 -43 74
-49 7 -11 -1396 0 -1407 11 -4 3 34 146 83 316 49 171 94 328 99 349 11 46 17
56 29 56 5 0 244 -145 532 -322z m-152 177 c0 -8 7 -15 15 -15 16 0 20 -15 7
-24 -15 -9 -52 23 -46 39 8 19 24 19 24 0z m130 -85 c0 -5 -4 -10 -10 -10 -5
0 -10 5 -10 10 0 6 5 10 10 10 6 0 10 -4 10 -10z m54 -45 c-3 -7 -12 -11 -20
-8 -17 6 -18 20 -1 26 18 6 27 -1 21 -18z m62 -52 c-9 -9 -38 26 -31 38 5 6
13 3 22 -11 8 -12 13 -24 9 -27z m45 -36 c-8 -8 -11 -5 -11 9 0 27 14 41 18
19 2 -9 -1 -22 -7 -28z m142 -67 c-4 -16 -8 -18 -19 -9 -11 9 -11 15 -3 25 15
19 28 9 22 -16z m74 -48 c-8 -11 -14 -9 -30 6 -27 28 -13 47 18 25 17 -14 20
-21 12 -31z m49 -38 c8 3 14 1 14 -5 0 -16 -35 -6 -36 11 -1 10 0 11 3 2 3 -8
11 -11 19 -8z m71 -24 c9 -13 9 -21 2 -26 -11 -7 -40 26 -33 38 8 13 19 9 31
-12z m57 -63 c7 -6 6 -7 -4 -4 -8 2 -16 12 -17 23 -2 13 -1 15 4 4 3 -8 11
-19 17 -23z m66 -22 c0 -22 -2 -24 -19 -13 -15 9 -17 15 -9 25 16 20 28 15 28
-12z m50 -15 c0 -5 7 -10 15 -10 13 0 14 -4 4 -21 l-11 -21 -19 21 c-11 12
-17 26 -14 31 8 13 25 13 25 0z"/>
</g>
</svg>
